Lab 6: Childcare Cost in California
…
ℹ Use `spec()` to retrieve the full column specification for this data.
ℹ Specify the column types or set `show_col_types = FALSE` to quiet this message.

1. Briefly describe the dataset (~ 4 sentences). What information does it contain? > The dataset contains the childcare price by childcare provider type, age of childre, and county. The years presented in the data are from 2008 to 2018. Although not ideal the data implies that “both parents” refer to one male and one female limiting some factors.

California Childcare Costs

Let’s start by focusing only on California.

2. Create a ca_childcare dataset of childcare costs in California, containing (1) county information and (2) just the year and childcare cost variable information from the childcare_costs dataset.

Hint: There are 58 counties in CA and 11 years in the dataset. Therefore, your new dataset should have 53 x 11 = 638 observations. The final data set should have study year, median household income expressed in 2018 dollars, all the variables associated with full-time median price charged for Center-based Care, and California county names

# A tibble: 638 × 7
   county_name    study_year mhi_2018  mcsa mc_infant mc_toddler mc_preschool
   <chr>               <dbl>    <dbl> <dbl>     <dbl>      <dbl>        <dbl>
 1 Alameda County       2008   80591.  155.      302.       214.         214.
 2 Alameda County       2009   80570.  169.      313.       234.         234.
 3 Alameda County       2010   80485.  182.      313.       235.         235.
 4 Alameda County       2011   79320.  195.      314.       236.         236.
 5 Alameda County       2012   78668.  208.      314.       236.         236.
 6 Alameda County       2013   77881.  192.      312.       232.         232.
 7 Alameda County       2014   78202.  176.      310.       227.         227.
 8 Alameda County       2015   80156.  189.      344.       251.         251.
 9 Alameda County       2016   83823.  202.      378.       274.         274.
10 Alameda County       2017   88315.  213.      386.       290.         290.
# ℹ 628 more rows
…
